…
temp = flights %>% select(month, arr_delay,carrier, distance) %>% filter(month %in% c(12,1,7,8), carrier %in% c("UA", "AA", "DL"), distance > 700)

#remove the missing value NA
temp = na.omit(temp)
myData = temp %>% group_by(carrier, month) %>% summarise_at(vars(arr_delay, distance), list(mean))

temp
## # A tibble: 42,562 x 4
##    month arr_delay carrier distance
##    <int>     <dbl> <chr>      <dbl>
##  1     1        11 UA          1400
##  2     1        20 UA          1416
##  3     1        33 AA          1089
##  4     1       -25 DL           762
##  5     1        12 UA           719
##  6     1         8 AA           733
##  7     1         7 UA          2475
##  8     1       -14 UA          2565
##  9     1        31 AA          1389
## 10     1        -8 UA          2227
## # ... with 42,552 more rows
…
